<mxfile host="app.diagrams.net" modified="2023-01-30T04:44:59.935Z" agent="5.0 (Windows NT 10.0; Win64; x64) AppleWebKit/537.36 (KHTML, like Gecko) Chrome/109.0.0.0 Safari/537.36" etag="tLrQ7Q1ygpxypH1DAOQw" version="20.8.10" type="gitlab">
  <diagram name="Página-1" id="MCRGhNV-m3ZqpvZ70zQ8">
    <mxGraphModel dx="996" dy="415" grid="1" gridSize="10" guides="1" tooltips="1" connect="1" arrows="1" fold="1" page="1" pageScale="1" pageWidth="827" pageHeight="1169" math="0" shadow="0">
      <root>
        <mxCell id="0" />
        <mxCell id="1" parent="0" />
        <mxCell id="ZRZNPhRXc3yijHGsDXLi-24" value="Core" style="text;strokeColor=none;align=left;fillColor=none;html=1;verticalAlign=middle;whiteSpace=wrap;rounded=0;fontSize=6;" vertex="1" parent="1">
          <mxGeometry x="40" y="340" width="60" height="30" as="geometry" />
        </mxCell>
        <mxCell id="ZRZNPhRXc3yijHGsDXLi-20" value="" style="endArrow=none;dashed=1;html=1;rounded=0;fontSize=6;" edge="1" parent="1">
          <mxGeometry width="50" height="50" relative="1" as="geometry">
            <mxPoint x="40" y="520" as="sourcePoint" />
            <mxPoint x="820" y="520" as="targetPoint" />
          </mxGeometry>
        </mxCell>
        <mxCell id="ZRZNPhRXc3yijHGsDXLi-21" value="" style="endArrow=none;dashed=1;html=1;rounded=0;fontSize=6;" edge="1" parent="1">
          <mxGeometry width="50" height="50" relative="1" as="geometry">
            <mxPoint x="40" y="400" as="sourcePoint" />
            <mxPoint x="820" y="400" as="targetPoint" />
          </mxGeometry>
        </mxCell>
        <mxCell id="ZRZNPhRXc3yijHGsDXLi-22" value="Acceso" style="text;strokeColor=none;align=left;fillColor=none;html=1;verticalAlign=middle;whiteSpace=wrap;rounded=0;fontSize=6;" vertex="1" parent="1">
          <mxGeometry x="40" y="520" width="60" height="30" as="geometry" />
        </mxCell>
        <mxCell id="ZRZNPhRXc3yijHGsDXLi-23" value="Distribution" style="text;strokeColor=none;align=left;fillColor=none;html=1;verticalAlign=middle;whiteSpace=wrap;rounded=0;fontSize=6;" vertex="1" parent="1">
          <mxGeometry x="40" y="400" width="60" height="30" as="geometry" />
        </mxCell>
        <mxCell id="ZRZNPhRXc3yijHGsDXLi-74" value="MPLS" style="ellipse;shape=cloud;whiteSpace=wrap;html=1;fontSize=6;" vertex="1" parent="1">
          <mxGeometry x="269" y="400" width="290" height="110" as="geometry" />
        </mxCell>
        <mxCell id="ZRZNPhRXc3yijHGsDXLi-76" value="" style="ellipse;shape=cloud;whiteSpace=wrap;html=1;fontSize=6;" vertex="1" parent="1">
          <mxGeometry x="160" y="320" width="510" height="80" as="geometry" />
        </mxCell>
        <mxCell id="ZRZNPhRXc3yijHGsDXLi-77" value="" style="shape=mxgraph.cisco.people.pc_man;sketch=0;html=1;pointerEvents=1;dashed=0;fillColor=#036897;strokeColor=#ffffff;strokeWidth=2;verticalLabelPosition=bottom;verticalAlign=top;align=center;outlineConnect=0;fontSize=6;" vertex="1" parent="1">
          <mxGeometry x="450" y="300" width="25.25" height="40" as="geometry" />
        </mxCell>
        <mxCell id="ZRZNPhRXc3yijHGsDXLi-78" value="Usuario" style="text;strokeColor=none;align=center;fillColor=none;html=1;verticalAlign=middle;whiteSpace=wrap;rounded=0;fontSize=6;" vertex="1" parent="1">
          <mxGeometry x="432.63" y="280" width="60" height="30" as="geometry" />
        </mxCell>
        <mxCell id="ZRZNPhRXc3yijHGsDXLi-79" value="" style="shape=mxgraph.cisco.servers.standard_host;sketch=0;html=1;pointerEvents=1;dashed=0;fillColor=#036897;strokeColor=#ffffff;strokeWidth=2;verticalLabelPosition=bottom;verticalAlign=top;align=center;outlineConnect=0;fontSize=6;" vertex="1" parent="1">
          <mxGeometry x="247" y="330" width="23" height="40" as="geometry" />
        </mxCell>
        <mxCell id="ZRZNPhRXc3yijHGsDXLi-80" value="Servidor DNS" style="text;strokeColor=none;align=center;fillColor=none;html=1;verticalAlign=middle;whiteSpace=wrap;rounded=0;fontSize=6;" vertex="1" parent="1">
          <mxGeometry x="230" y="310" width="60" height="30" as="geometry" />
        </mxCell>
        <mxCell id="ZRZNPhRXc3yijHGsDXLi-81" value="Redes Externa" style="text;strokeColor=none;align=center;fillColor=none;html=1;verticalAlign=middle;whiteSpace=wrap;rounded=0;fontSize=6;" vertex="1" parent="1">
          <mxGeometry x="405.25" y="340" width="60" height="30" as="geometry" />
        </mxCell>
        <mxCell id="ZRZNPhRXc3yijHGsDXLi-233" style="edgeStyle=none;rounded=0;orthogonalLoop=1;jettySize=auto;html=1;entryX=0.13;entryY=0.77;entryDx=0;entryDy=0;entryPerimeter=0;fontSize=6;" edge="1" parent="1" source="ZRZNPhRXc3yijHGsDXLi-111" target="ZRZNPhRXc3yijHGsDXLi-74">
          <mxGeometry relative="1" as="geometry" />
        </mxCell>
        <mxCell id="ZRZNPhRXc3yijHGsDXLi-111" value="" style="rounded=1;whiteSpace=wrap;html=1;shadow=0;strokeColor=none;fillColor=#BAC8D3;gradientColor=none;fontSize=18;fontColor=#AE4132;verticalAlign=bottom;fontStyle=0;opacity=40;strokeWidth=3;" vertex="1" parent="1">
          <mxGeometry x="35.25" y="540" width="324.75" height="120" as="geometry" />
        </mxCell>
        <mxCell id="ZRZNPhRXc3yijHGsDXLi-112" value="" style="edgeStyle=none;rounded=0;orthogonalLoop=1;jettySize=auto;html=1;fontSize=6;entryX=0.5;entryY=0.98;entryDx=0;entryDy=0;entryPerimeter=0;" edge="1" parent="1" source="ZRZNPhRXc3yijHGsDXLi-113" target="ZRZNPhRXc3yijHGsDXLi-124">
          <mxGeometry relative="1" as="geometry" />
        </mxCell>
        <mxCell id="ZRZNPhRXc3yijHGsDXLi-113" value="" style="strokeColor=#666666;html=1;verticalLabelPosition=bottom;labelBackgroundColor=#ffffff;verticalAlign=top;outlineConnect=0;shadow=0;dashed=0;shape=mxgraph.rack.general.server_1;fontSize=6;" vertex="1" parent="1">
          <mxGeometry x="80" y="605" width="20" height="40" as="geometry" />
        </mxCell>
        <mxCell id="ZRZNPhRXc3yijHGsDXLi-114" value="" style="rounded=0;orthogonalLoop=1;jettySize=auto;html=1;fontSize=6;" edge="1" parent="1" source="ZRZNPhRXc3yijHGsDXLi-115">
          <mxGeometry relative="1" as="geometry">
            <mxPoint x="130" y="575" as="targetPoint" />
          </mxGeometry>
        </mxCell>
        <mxCell id="ZRZNPhRXc3yijHGsDXLi-115" value="" style="strokeColor=#666666;html=1;verticalLabelPosition=bottom;labelBackgroundColor=#ffffff;verticalAlign=top;outlineConnect=0;shadow=0;dashed=0;shape=mxgraph.rack.general.server_1;fontSize=6;" vertex="1" parent="1">
          <mxGeometry x="120" y="605" width="20" height="40" as="geometry" />
        </mxCell>
        <mxCell id="ZRZNPhRXc3yijHGsDXLi-116" value="" style="edgeStyle=none;rounded=0;orthogonalLoop=1;jettySize=auto;html=1;fontSize=6;entryX=0.5;entryY=0.98;entryDx=0;entryDy=0;entryPerimeter=0;" edge="1" parent="1" source="ZRZNPhRXc3yijHGsDXLi-117" target="ZRZNPhRXc3yijHGsDXLi-128">
          <mxGeometry relative="1" as="geometry" />
        </mxCell>
        <mxCell id="ZRZNPhRXc3yijHGsDXLi-117" value="" style="strokeColor=#666666;html=1;verticalLabelPosition=bottom;labelBackgroundColor=#ffffff;verticalAlign=top;outlineConnect=0;shadow=0;dashed=0;shape=mxgraph.rack.general.server_1;fontSize=6;" vertex="1" parent="1">
          <mxGeometry x="200" y="605" width="20" height="40" as="geometry" />
        </mxCell>
        <mxCell id="ZRZNPhRXc3yijHGsDXLi-118" style="edgeStyle=none;rounded=0;orthogonalLoop=1;jettySize=auto;html=1;entryX=0.5;entryY=0.98;entryDx=0;entryDy=0;entryPerimeter=0;fontSize=6;" edge="1" parent="1" source="ZRZNPhRXc3yijHGsDXLi-119" target="ZRZNPhRXc3yijHGsDXLi-130">
          <mxGeometry relative="1" as="geometry" />
        </mxCell>
        <mxCell id="ZRZNPhRXc3yijHGsDXLi-119" value="" style="strokeColor=#666666;html=1;verticalLabelPosition=bottom;labelBackgroundColor=#ffffff;verticalAlign=top;outlineConnect=0;shadow=0;dashed=0;shape=mxgraph.rack.general.server_1;fontSize=6;" vertex="1" parent="1">
          <mxGeometry x="280" y="605" width="20" height="40" as="geometry" />
        </mxCell>
        <mxCell id="ZRZNPhRXc3yijHGsDXLi-120" style="edgeStyle=none;rounded=0;orthogonalLoop=1;jettySize=auto;html=1;entryX=0.5;entryY=0.98;entryDx=0;entryDy=0;entryPerimeter=0;fontSize=6;" edge="1" parent="1" source="ZRZNPhRXc3yijHGsDXLi-121" target="ZRZNPhRXc3yijHGsDXLi-129">
          <mxGeometry relative="1" as="geometry" />
        </mxCell>
        <mxCell id="ZRZNPhRXc3yijHGsDXLi-121" value="" style="strokeColor=#666666;html=1;verticalLabelPosition=bottom;labelBackgroundColor=#ffffff;verticalAlign=top;outlineConnect=0;shadow=0;dashed=0;shape=mxgraph.rack.general.server_1;fontSize=6;" vertex="1" parent="1">
          <mxGeometry x="240" y="605" width="20" height="40" as="geometry" />
        </mxCell>
        <mxCell id="ZRZNPhRXc3yijHGsDXLi-122" value="" style="edgeStyle=none;rounded=0;orthogonalLoop=1;jettySize=auto;html=1;fontSize=6;entryX=0.5;entryY=0.98;entryDx=0;entryDy=0;entryPerimeter=0;" edge="1" parent="1" source="ZRZNPhRXc3yijHGsDXLi-123" target="ZRZNPhRXc3yijHGsDXLi-127">
          <mxGeometry relative="1" as="geometry">
            <Array as="points" />
          </mxGeometry>
        </mxCell>
        <mxCell id="ZRZNPhRXc3yijHGsDXLi-123" value="" style="strokeColor=#666666;html=1;verticalLabelPosition=bottom;labelBackgroundColor=#ffffff;verticalAlign=top;outlineConnect=0;shadow=0;dashed=0;shape=mxgraph.rack.general.server_1;fontSize=6;" vertex="1" parent="1">
          <mxGeometry x="160" y="605" width="20" height="40" as="geometry" />
        </mxCell>
        <mxCell id="ZRZNPhRXc3yijHGsDXLi-124" value="" style="shape=mxgraph.cisco.switches.workgroup_switch;sketch=0;html=1;pointerEvents=1;dashed=0;fillColor=#036897;strokeColor=#ffffff;strokeWidth=2;verticalLabelPosition=bottom;verticalAlign=top;align=center;outlineConnect=0;fontSize=6;" vertex="1" parent="1">
          <mxGeometry x="70" y="555" width="40" height="20" as="geometry" />
        </mxCell>
        <mxCell id="ZRZNPhRXc3yijHGsDXLi-125" value="" style="shape=mxgraph.cisco.switches.workgroup_switch;sketch=0;html=1;pointerEvents=1;dashed=0;fillColor=#036897;strokeColor=#ffffff;strokeWidth=2;verticalLabelPosition=bottom;verticalAlign=top;align=center;outlineConnect=0;fontSize=6;" vertex="1" parent="1">
          <mxGeometry x="110" y="555" width="40" height="20" as="geometry" />
        </mxCell>
        <mxCell id="ZRZNPhRXc3yijHGsDXLi-126" value="" style="shape=mxgraph.cisco.switches.workgroup_switch;sketch=0;html=1;pointerEvents=1;dashed=0;fillColor=#036897;strokeColor=#ffffff;strokeWidth=2;verticalLabelPosition=bottom;verticalAlign=top;align=center;outlineConnect=0;fontSize=6;" vertex="1" parent="1">
          <mxGeometry x="110" y="555" width="40" height="20" as="geometry" />
        </mxCell>
        <mxCell id="ZRZNPhRXc3yijHGsDXLi-127" value="" style="shape=mxgraph.cisco.switches.workgroup_switch;sketch=0;html=1;pointerEvents=1;dashed=0;fillColor=#036897;strokeColor=#ffffff;strokeWidth=2;verticalLabelPosition=bottom;verticalAlign=top;align=center;outlineConnect=0;fontSize=6;" vertex="1" parent="1">
          <mxGeometry x="150" y="555" width="40" height="20" as="geometry" />
        </mxCell>
        <mxCell id="ZRZNPhRXc3yijHGsDXLi-128" value="" style="shape=mxgraph.cisco.switches.workgroup_switch;sketch=0;html=1;pointerEvents=1;dashed=0;fillColor=#036897;strokeColor=#ffffff;strokeWidth=2;verticalLabelPosition=bottom;verticalAlign=top;align=center;outlineConnect=0;fontSize=6;" vertex="1" parent="1">
          <mxGeometry x="190" y="555" width="40" height="20" as="geometry" />
        </mxCell>
        <mxCell id="ZRZNPhRXc3yijHGsDXLi-129" value="" style="shape=mxgraph.cisco.switches.workgroup_switch;sketch=0;html=1;pointerEvents=1;dashed=0;fillColor=#036897;strokeColor=#ffffff;strokeWidth=2;verticalLabelPosition=bottom;verticalAlign=top;align=center;outlineConnect=0;fontSize=6;" vertex="1" parent="1">
          <mxGeometry x="230" y="555" width="40" height="20" as="geometry" />
        </mxCell>
        <mxCell id="ZRZNPhRXc3yijHGsDXLi-130" value="" style="shape=mxgraph.cisco.switches.workgroup_switch;sketch=0;html=1;pointerEvents=1;dashed=0;fillColor=#036897;strokeColor=#ffffff;strokeWidth=2;verticalLabelPosition=bottom;verticalAlign=top;align=center;outlineConnect=0;fontSize=6;" vertex="1" parent="1">
          <mxGeometry x="270" y="555" width="40" height="20" as="geometry" />
        </mxCell>
        <mxCell id="ZRZNPhRXc3yijHGsDXLi-235" style="edgeStyle=none;rounded=0;orthogonalLoop=1;jettySize=auto;html=1;fontSize=6;entryX=0.96;entryY=0.7;entryDx=0;entryDy=0;entryPerimeter=0;" edge="1" parent="1" source="ZRZNPhRXc3yijHGsDXLi-131" target="ZRZNPhRXc3yijHGsDXLi-74">
          <mxGeometry relative="1" as="geometry" />
        </mxCell>
        <mxCell id="ZRZNPhRXc3yijHGsDXLi-131" value="" style="rounded=1;whiteSpace=wrap;html=1;shadow=0;strokeColor=none;fillColor=#BAC8D3;gradientColor=none;fontSize=18;fontColor=#AE4132;verticalAlign=bottom;fontStyle=0;opacity=40;strokeWidth=3;" vertex="1" parent="1">
          <mxGeometry x="492.63" y="540" width="324.75" height="120" as="geometry" />
        </mxCell>
        <mxCell id="ZRZNPhRXc3yijHGsDXLi-208" style="edgeStyle=none;rounded=0;orthogonalLoop=1;jettySize=auto;html=1;entryX=0.5;entryY=0.98;entryDx=0;entryDy=0;entryPerimeter=0;fontSize=6;" edge="1" parent="1" source="ZRZNPhRXc3yijHGsDXLi-209" target="ZRZNPhRXc3yijHGsDXLi-220">
          <mxGeometry relative="1" as="geometry" />
        </mxCell>
        <mxCell id="ZRZNPhRXc3yijHGsDXLi-209" value="" style="strokeColor=#666666;html=1;verticalLabelPosition=bottom;labelBackgroundColor=#ffffff;verticalAlign=top;outlineConnect=0;shadow=0;dashed=0;shape=mxgraph.rack.general.server_1;fontSize=6;" vertex="1" parent="1">
          <mxGeometry x="565" y="600" width="20" height="40" as="geometry" />
        </mxCell>
        <mxCell id="ZRZNPhRXc3yijHGsDXLi-210" style="edgeStyle=none;rounded=0;orthogonalLoop=1;jettySize=auto;html=1;entryX=0.5;entryY=0.98;entryDx=0;entryDy=0;entryPerimeter=0;fontSize=6;" edge="1" parent="1" source="ZRZNPhRXc3yijHGsDXLi-211" target="ZRZNPhRXc3yijHGsDXLi-222">
          <mxGeometry relative="1" as="geometry" />
        </mxCell>
        <mxCell id="ZRZNPhRXc3yijHGsDXLi-211" value="" style="strokeColor=#666666;html=1;verticalLabelPosition=bottom;labelBackgroundColor=#ffffff;verticalAlign=top;outlineConnect=0;shadow=0;dashed=0;shape=mxgraph.rack.general.server_1;fontSize=6;" vertex="1" parent="1">
          <mxGeometry x="605" y="600" width="20" height="40" as="geometry" />
        </mxCell>
        <mxCell id="ZRZNPhRXc3yijHGsDXLi-212" style="edgeStyle=none;rounded=0;orthogonalLoop=1;jettySize=auto;html=1;entryX=0.5;entryY=0.98;entryDx=0;entryDy=0;entryPerimeter=0;fontSize=6;" edge="1" parent="1" source="ZRZNPhRXc3yijHGsDXLi-213" target="ZRZNPhRXc3yijHGsDXLi-223">
          <mxGeometry relative="1" as="geometry" />
        </mxCell>
        <mxCell id="ZRZNPhRXc3yijHGsDXLi-213" value="" style="strokeColor=#666666;html=1;verticalLabelPosition=bottom;labelBackgroundColor=#ffffff;verticalAlign=top;outlineConnect=0;shadow=0;dashed=0;shape=mxgraph.rack.general.server_1;fontSize=6;" vertex="1" parent="1">
          <mxGeometry x="645" y="600" width="20" height="40" as="geometry" />
        </mxCell>
        <mxCell id="ZRZNPhRXc3yijHGsDXLi-214" style="edgeStyle=none;rounded=0;orthogonalLoop=1;jettySize=auto;html=1;entryX=0.5;entryY=0.98;entryDx=0;entryDy=0;entryPerimeter=0;fontSize=6;" edge="1" parent="1" source="ZRZNPhRXc3yijHGsDXLi-215" target="ZRZNPhRXc3yijHGsDXLi-226">
          <mxGeometry relative="1" as="geometry" />
        </mxCell>
        <mxCell id="ZRZNPhRXc3yijHGsDXLi-215" value="" style="strokeColor=#666666;html=1;verticalLabelPosition=bottom;labelBackgroundColor=#ffffff;verticalAlign=top;outlineConnect=0;shadow=0;dashed=0;shape=mxgraph.rack.general.server_1;fontSize=6;" vertex="1" parent="1">
          <mxGeometry x="765" y="600" width="20" height="40" as="geometry" />
        </mxCell>
        <mxCell id="ZRZNPhRXc3yijHGsDXLi-216" style="edgeStyle=none;rounded=0;orthogonalLoop=1;jettySize=auto;html=1;entryX=0.5;entryY=0.98;entryDx=0;entryDy=0;entryPerimeter=0;fontSize=6;" edge="1" parent="1" source="ZRZNPhRXc3yijHGsDXLi-217" target="ZRZNPhRXc3yijHGsDXLi-225">
          <mxGeometry relative="1" as="geometry" />
        </mxCell>
        <mxCell id="ZRZNPhRXc3yijHGsDXLi-217" value="" style="strokeColor=#666666;html=1;verticalLabelPosition=bottom;labelBackgroundColor=#ffffff;verticalAlign=top;outlineConnect=0;shadow=0;dashed=0;shape=mxgraph.rack.general.server_1;fontSize=6;" vertex="1" parent="1">
          <mxGeometry x="725" y="600" width="20" height="40" as="geometry" />
        </mxCell>
        <mxCell id="ZRZNPhRXc3yijHGsDXLi-218" style="edgeStyle=none;rounded=0;orthogonalLoop=1;jettySize=auto;html=1;fontSize=6;" edge="1" parent="1" source="ZRZNPhRXc3yijHGsDXLi-219" target="ZRZNPhRXc3yijHGsDXLi-231">
          <mxGeometry relative="1" as="geometry">
            <mxPoint x="703.6849999999997" y="574.6" as="targetPoint" />
          </mxGeometry>
        </mxCell>
        <mxCell id="ZRZNPhRXc3yijHGsDXLi-219" value="" style="strokeColor=#666666;html=1;verticalLabelPosition=bottom;labelBackgroundColor=#ffffff;verticalAlign=top;outlineConnect=0;shadow=0;dashed=0;shape=mxgraph.rack.general.server_1;fontSize=6;" vertex="1" parent="1">
          <mxGeometry x="685" y="600" width="20" height="40" as="geometry" />
        </mxCell>
        <mxCell id="ZRZNPhRXc3yijHGsDXLi-220" value="" style="shape=mxgraph.cisco.switches.workgroup_switch;sketch=0;html=1;pointerEvents=1;dashed=0;fillColor=#036897;strokeColor=#ffffff;strokeWidth=2;verticalLabelPosition=bottom;verticalAlign=top;align=center;outlineConnect=0;fontSize=6;" vertex="1" parent="1">
          <mxGeometry x="555" y="555" width="40" height="20" as="geometry" />
        </mxCell>
        <mxCell id="ZRZNPhRXc3yijHGsDXLi-221" value="" style="shape=mxgraph.cisco.switches.workgroup_switch;sketch=0;html=1;pointerEvents=1;dashed=0;fillColor=#036897;strokeColor=#ffffff;strokeWidth=2;verticalLabelPosition=bottom;verticalAlign=top;align=center;outlineConnect=0;fontSize=6;" vertex="1" parent="1">
          <mxGeometry x="595" y="555" width="40" height="20" as="geometry" />
        </mxCell>
        <mxCell id="ZRZNPhRXc3yijHGsDXLi-222" value="" style="shape=mxgraph.cisco.switches.workgroup_switch;sketch=0;html=1;pointerEvents=1;dashed=0;fillColor=#036897;strokeColor=#ffffff;strokeWidth=2;verticalLabelPosition=bottom;verticalAlign=top;align=center;outlineConnect=0;fontSize=6;" vertex="1" parent="1">
          <mxGeometry x="595" y="555" width="40" height="20" as="geometry" />
        </mxCell>
        <mxCell id="ZRZNPhRXc3yijHGsDXLi-223" value="" style="shape=mxgraph.cisco.switches.workgroup_switch;sketch=0;html=1;pointerEvents=1;dashed=0;fillColor=#036897;strokeColor=#ffffff;strokeWidth=2;verticalLabelPosition=bottom;verticalAlign=top;align=center;outlineConnect=0;fontSize=6;" vertex="1" parent="1">
          <mxGeometry x="635" y="555" width="40" height="20" as="geometry" />
        </mxCell>
        <mxCell id="ZRZNPhRXc3yijHGsDXLi-230" value="" style="edgeStyle=none;rounded=0;orthogonalLoop=1;jettySize=auto;html=1;fontSize=6;startArrow=none;" edge="1" parent="1" source="ZRZNPhRXc3yijHGsDXLi-231" target="ZRZNPhRXc3yijHGsDXLi-223">
          <mxGeometry relative="1" as="geometry" />
        </mxCell>
        <mxCell id="ZRZNPhRXc3yijHGsDXLi-225" value="" style="shape=mxgraph.cisco.switches.workgroup_switch;sketch=0;html=1;pointerEvents=1;dashed=0;fillColor=#036897;strokeColor=#ffffff;strokeWidth=2;verticalLabelPosition=bottom;verticalAlign=top;align=center;outlineConnect=0;fontSize=6;" vertex="1" parent="1">
          <mxGeometry x="715" y="555" width="40" height="20" as="geometry" />
        </mxCell>
        <mxCell id="ZRZNPhRXc3yijHGsDXLi-226" value="" style="shape=mxgraph.cisco.switches.workgroup_switch;sketch=0;html=1;pointerEvents=1;dashed=0;fillColor=#036897;strokeColor=#ffffff;strokeWidth=2;verticalLabelPosition=bottom;verticalAlign=top;align=center;outlineConnect=0;fontSize=6;" vertex="1" parent="1">
          <mxGeometry x="755" y="555" width="40" height="20" as="geometry" />
        </mxCell>
        <mxCell id="ZRZNPhRXc3yijHGsDXLi-227" style="edgeStyle=none;rounded=0;orthogonalLoop=1;jettySize=auto;html=1;exitX=0.16;exitY=0.23;exitDx=0;exitDy=0;exitPerimeter=0;entryX=0;entryY=0.5;entryDx=0;entryDy=0;entryPerimeter=0;fontSize=6;" edge="1" parent="1">
          <mxGeometry relative="1" as="geometry">
            <mxPoint x="695.9908" y="559.6" as="sourcePoint" />
            <mxPoint x="692.3699999999999" y="565" as="targetPoint" />
          </mxGeometry>
        </mxCell>
        <mxCell id="ZRZNPhRXc3yijHGsDXLi-229" style="edgeStyle=none;rounded=0;orthogonalLoop=1;jettySize=auto;html=1;exitX=0.5;exitY=0.98;exitDx=0;exitDy=0;exitPerimeter=0;entryX=0;entryY=0.5;entryDx=0;entryDy=0;entryPerimeter=0;fontSize=6;" edge="1" parent="1">
          <mxGeometry relative="1" as="geometry">
            <mxPoint x="703.6849999999997" y="574.6" as="sourcePoint" />
            <mxPoint x="692.3699999999999" y="565" as="targetPoint" />
          </mxGeometry>
        </mxCell>
        <mxCell id="ZRZNPhRXc3yijHGsDXLi-232" value="" style="edgeStyle=none;rounded=0;orthogonalLoop=1;jettySize=auto;html=1;fontSize=6;endArrow=none;" edge="1" parent="1" source="ZRZNPhRXc3yijHGsDXLi-225" target="ZRZNPhRXc3yijHGsDXLi-231">
          <mxGeometry relative="1" as="geometry">
            <mxPoint x="715" y="565" as="sourcePoint" />
            <mxPoint x="675" y="565" as="targetPoint" />
          </mxGeometry>
        </mxCell>
        <mxCell id="ZRZNPhRXc3yijHGsDXLi-231" value="" style="shape=mxgraph.cisco.switches.workgroup_switch;sketch=0;html=1;pointerEvents=1;dashed=0;fillColor=#036897;strokeColor=#ffffff;strokeWidth=2;verticalLabelPosition=bottom;verticalAlign=top;align=center;outlineConnect=0;fontSize=6;" vertex="1" parent="1">
          <mxGeometry x="675" y="555" width="40" height="20" as="geometry" />
        </mxCell>
        <mxCell id="ZRZNPhRXc3yijHGsDXLi-239" style="edgeStyle=none;rounded=0;orthogonalLoop=1;jettySize=auto;html=1;fontSize=6;" edge="1" parent="1" source="ZRZNPhRXc3yijHGsDXLi-237" target="ZRZNPhRXc3yijHGsDXLi-111">
          <mxGeometry relative="1" as="geometry" />
        </mxCell>
        <mxCell id="ZRZNPhRXc3yijHGsDXLi-237" value="" style="fontColor=#0066CC;verticalAlign=top;verticalLabelPosition=bottom;labelPosition=center;align=center;html=1;outlineConnect=0;fillColor=#CCCCCC;strokeColor=#6881B3;gradientColor=none;gradientDirection=north;strokeWidth=2;shape=mxgraph.networks.ups_enterprise;fontSize=6;" vertex="1" parent="1">
          <mxGeometry x="160" y="700" width="70" height="50" as="geometry" />
        </mxCell>
        <mxCell id="ZRZNPhRXc3yijHGsDXLi-240" style="edgeStyle=none;rounded=0;orthogonalLoop=1;jettySize=auto;html=1;entryX=0.526;entryY=1.008;entryDx=0;entryDy=0;entryPerimeter=0;fontSize=6;" edge="1" parent="1" source="ZRZNPhRXc3yijHGsDXLi-238" target="ZRZNPhRXc3yijHGsDXLi-131">
          <mxGeometry relative="1" as="geometry" />
        </mxCell>
        <mxCell id="ZRZNPhRXc3yijHGsDXLi-238" value="" style="fontColor=#0066CC;verticalAlign=top;verticalLabelPosition=bottom;labelPosition=center;align=center;html=1;outlineConnect=0;fillColor=#CCCCCC;strokeColor=#6881B3;gradientColor=none;gradientDirection=north;strokeWidth=2;shape=mxgraph.networks.ups_enterprise;fontSize=6;" vertex="1" parent="1">
          <mxGeometry x="635" y="695" width="55" height="60" as="geometry" />
        </mxCell>
        <mxCell id="ZRZNPhRXc3yijHGsDXLi-245" style="edgeStyle=none;rounded=0;orthogonalLoop=1;jettySize=auto;html=1;fontSize=11;" edge="1" parent="1" source="ZRZNPhRXc3yijHGsDXLi-243">
          <mxGeometry relative="1" as="geometry">
            <mxPoint x="419" y="510" as="targetPoint" />
          </mxGeometry>
        </mxCell>
        <mxCell id="ZRZNPhRXc3yijHGsDXLi-243" value="P" style="verticalLabelPosition=bottom;sketch=0;aspect=fixed;html=1;verticalAlign=top;strokeColor=none;align=center;outlineConnect=0;shape=mxgraph.citrix.cloud;fontSize=6;" vertex="1" parent="1">
          <mxGeometry x="371" y="569" width="95" height="62" as="geometry" />
        </mxCell>
        <mxCell id="ZRZNPhRXc3yijHGsDXLi-244" value="&lt;b&gt;&lt;font style=&quot;font-size: 11px;&quot;&gt;PSTN&lt;/font&gt;&lt;/b&gt;" style="text;strokeColor=none;align=center;fillColor=none;html=1;verticalAlign=middle;whiteSpace=wrap;rounded=0;fontSize=6;" vertex="1" parent="1">
          <mxGeometry x="388.5" y="585" width="60" height="30" as="geometry" />
        </mxCell>
      </root>
    </mxGraphModel>
  </diagram>
</mxfile>
